{
	"forceps_left": {
				"position": [0.46374, 0.70215, -0.76815],
				"orientation": [5.76, 0.09, 4.14]
			},
	"forceps_right":{
				"position": [0.1251, 0.69931, -0.75589],
				"orientation": [5.34, 0.28, 5.62]
			},
	"endoscope":	
			{
				"depth": 0,
				"camera":	
					{
					"intrinsic":
					{
						"focal_length": 24.77, 
						"horizontal_fov": 1.25664, 
						"vertical_fov": 1.25664,
						"clip_start": 0.001,
						"sensor_height": 36,
						"sensor_width": 36,
						"f_stop": 2.8
					},
					"lighting": 0.1
					}
			},
	"render":
			{
				"engine": "BLENDER_EEVEE",
				"samples": 200.0,
				"exposure": 0.0,
				"resolution_x": 1920,
				"resolution_y": 1080,
				"bake_lighting": false,
				"render_everything": true,
				"output_path": "example/eeve/"
			},
	"proto_gvs":	
			{
			    	"initial_conf_cams": "misumi",
				"position": [0.30567, 0.69441, -0.8455],
				"orientation": [6.258636, 5.962226, 6.059268],
				"camera_left":
					{
						"orientation": [0, 0.05, 0],
						"translation": -0.01,
						"intrinsic":
								{
									"focal_length": 1.83, 
									"horizontal_fov": 1.20428, 
									"vertical_fov": 0.750492,
									"clip_start": 0.001,
									"sensor_height": 1.4417,
									"sensor_width": 2.5154,
									"f_stop": 8
								},
								"lighting": 0.05
					},
				"camera_right":
					{
						"orientation": [0, -0.05, 0],
						"translation": 0.01,
						"intrinsic":
								{
									"focal_length": 1.83, 
									"horizontal_fov": 1.20428, 
									"vertical_fov": 0.750492,
									"clip_start": 0.001,
									"sensor_height": 1.4417,
									"sensor_width": 2.5154,
									"f_stop": 8
								},
								"lighting": 0.05
					}
			}
	
}
