{
	"forceps_left": {
				"position": [0.46374, 0.70215, -0.76815],
				"orientation": [5.76, 0.09, 4.14]
			},
	"forceps_right":{
				"position": [0.1251, 0.69931, -0.75589],
				"orientation": [5.34, 0.28, 5.62]
			},
	"endoscope":	
			{
				"depth": 0,
				"camera":	
					{
					"intrinsic":
					{
						"focal_length": 24.77, 
						"horizontal_fov": 1.25664, 
						"vertical_fov": 1.25664,
						"clip_start": 0.001,
						"sensor_height": 36,
						"sensor_width": 36,
						"f_stop": 2.8
					},
					"lighting": 0.1
					}
			},
	"render":
			{
				"engine": "CYCLES",
				"samples": 40.0,
				"exposure": 0.0,
				"resolution_x": 720,
				"resolution_y": 720,
				"bake_lighting": false,
				"render_everything": true,
				"output_path": "example/fisheye_cycles/dist_-0.10_angle_180/"
			},
    "proto_fisheye":
			{ 
			    "position": [0.30945, 0.69422, -0.81875],
				"orientation": [6.407975, 5.819951, 6.068281],
			    "camera_right": 
			        {
			            "orientation": 0, 
			            "translation": -0.10,
			            "fov":180
			        },
			    "camera_left": 
			        {
			            "orientation": 0, 
			            "translation": -0.10,
			            "fov":180
			        },
			    "virtual_light": 0.4
	        }
	
}
